RISCY20kV2/src/Testbench/log.txt
WARNING: ../Memories/memory.v:36: $readmemh: Standard inconsistency, following 1364-2005.
WARNING: ../Memories/memory.v:36: $readmemh(../includes/bootloader.hex): Not enough words in the file for the requested range [0:8193].
WARNING: ./Simulation/MemorySim.v:31: $readmemh: Standard inconsistency, following 1364-2005.
WARNING: ./Simulation/MemorySim.v:31: $readmemh(../includes/secondStage.hex): Not enough words in the file for the requested range [0:262143].
WARNING: ./Simulation/MemorySim.v:31: $readmemh: Standard inconsistency, following 1364-2005.
WARNING: ./Simulation/MemorySim.v:31: $readmemh(../includes/RAM.hex): Not enough words in the file for the requested range [0:262143].
Starting TESTBENCH
VCD info: dumpfile ZSOC.vcd opened for output.
VCD warning: array word test.TOP.cpu_1.cpu_regs.data[0] will conflict with an escaped identifier.
VCD warning: array word test.TOP.cpu_1.cpu_regs.data[1] will conflict with an escaped identifier.
VCD warning: array word test.TOP.cpu_1.cpu_regs.data[2] will conflict with an escaped identifier.
VCD warning: array word test.TOP.cpu_1.cpu_regs.data[3] will conflict with an escaped identifier.
VCD warning: array word test.TOP.cpu_1.cpu_regs.data[4] will conflict with an escaped identifier.
VCD warning: array word test.TOP.cpu_1.cpu_regs.data[5] will conflict with an escaped identifier.
VCD warning: array word test.TOP.cpu_1.cpu_regs.data[6] will conflict with an escaped identifier.
VCD warning: array word test.TOP.cpu_1.cpu_regs.data[7] will conflict with an escaped identifier.
VCD warning: array word test.TOP.cpu_1.cpu_regs.data[8] will conflict with an escaped identifier.
VCD warning: array word test.TOP.cpu_1.cpu_regs.data[9] will conflict with an escaped identifier.
VCD warning: array word test.TOP.cpu_1.cpu_regs.data[10] will conflict with an escaped identifier.
VCD warning: array word test.TOP.cpu_1.cpu_regs.data[11] will conflict with an escaped identifier.
VCD warning: array word test.TOP.cpu_1.cpu_regs.data[12] will conflict with an escaped identifier.
VCD warning: array word test.TOP.cpu_1.cpu_regs.data[13] will conflict with an escaped identifier.
VCD warning: array word test.TOP.cpu_1.cpu_regs.data[14] will conflict with an escaped identifier.
VCD warning: array word test.TOP.cpu_1.cpu_regs.data[15] will conflict with an escaped identifier.
VCD warning: array word test.TOP.cpu_1.cpu_regs.data[16] will conflict with an escaped identifier.
VCD warning: array word test.TOP.cpu_1.cpu_regs.data[17] will conflict with an escaped identifier.
VCD warning: array word test.TOP.cpu_1.cpu_regs.data[18] will conflict with an escaped identifier.
VCD warning: array word test.TOP.cpu_1.cpu_regs.data[19] will conflict with an escaped identifier.
VCD warning: array word test.TOP.cpu_1.cpu_regs.data[20] will conflict with an escaped identifier.
VCD warning: array word test.TOP.cpu_1.cpu_regs.data[21] will conflict with an escaped identifier.
VCD warning: array word test.TOP.cpu_1.cpu_regs.data[22] will conflict with an escaped identifier.
VCD warning: array word test.TOP.cpu_1.cpu_regs.data[23] will conflict with an escaped identifier.
VCD warning: array word test.TOP.cpu_1.cpu_regs.data[24] will conflict with an escaped identifier.
VCD warning: array word test.TOP.cpu_1.cpu_regs.data[25] will conflict with an escaped identifier.
VCD warning: array word test.TOP.cpu_1.cpu_regs.data[26] will conflict with an escaped identifier.
VCD warning: array word test.TOP.cpu_1.cpu_regs.data[27] will conflict with an escaped identifier.
VCD warning: array word test.TOP.cpu_1.cpu_regs.data[28] will conflict with an escaped identifier.
VCD warning: array word test.TOP.cpu_1.cpu_regs.data[29] will conflict with an escaped identifier.
VCD warning: array word test.TOP.cpu_1.cpu_regs.data[30] will conflict with an escaped identifier.
VCD warning: array word test.TOP.cpu_1.cpu_regs.data[31] will conflict with an escaped identifier.
VCD warning: array word test.TOP.text.charMemory[0] will conflict with an escaped identifier.
VCD warning: array word test.TOP.text.charMemory[1] will conflict with an escaped identifier.
VCD warning: array word test.TOP.text.charMemory[2] will conflict with an escaped identifier.
VCD warning: array word test.TOP.text.charMemory[3] will conflict with an escaped identifier.
VCD warning: array word test.TOP.text.charMemory[4] will conflict with an escaped identifier.
VCD warning: array word test.TOP.text.charMemory[5] will conflict with an escaped identifier.
VCD warning: array word test.TOP.text.charMemory[6] will conflict with an escaped identifier.
VCD warning: array word test.TOP.text.charMemory[7] will conflict with an escaped identifier.
VCD warning: array word test.TOP.text.charMemory[8] will conflict with an escaped identifier.
VCD warning: array word test.TOP.text.charMemory[9] will conflict with an escaped identifier.
VCD warning: array word test.TOP.text.charMemory[10] will conflict with an escaped identifier.
VCD warning: array word test.TOP.text.charMemory[11] will conflict with an escaped identifier.
VCD warning: array word test.TOP.text.charMemory[12] will conflict with an escaped identifier.
VCD warning: array word test.TOP.text.charMemory[13] will conflict with an escaped identifier.
VCD warning: array word test.TOP.text.charMemory[14] will conflict with an escaped identifier.
VCD warning: array word test.TOP.text.charMemory[15] will conflict with an escaped identifier.
VCD warning: array word test.TOP.text.charMemory[16] will conflict with an escaped identifier.
VCD warning: array word test.TOP.text.charMemory[17] will conflict with an escaped identifier.
VCD warning: array word test.TOP.text.charMemory[18] will conflict with an escaped identifier.
test.sdram : at time  327745.0 ns AREF : Auto Refresh
test.sdram : at time  327845.0 ns AREF : Auto Refresh
test.sdram : at time  327945.0 ns LMR  : Load Mode Register
test.sdram :                             CAS Latency      = 2
test.sdram :                             Burst Length     = 1
test.sdram :                             Burst Type       = Sequential
test.sdram :                             Write Burst Mode = Programmed Burst Length
test.sdram : at time  328005.0 ns AREF : Auto Refresh
test.sdram : at time  328105.0 ns ACT  : Bank = 0 Row =    0
test.sdram : at time  328145.0 ns WRITE: Bank = 0 Row =    0, Col =   0, Data = 3e800313
test.sdram : at time  328495.0 ns ACT  : Bank = 0 Row =    0
test.sdram : at time  328535.0 ns WRITE: Bank = 0 Row =    0, Col =   1, Data = 7d030393
test.sdram : at time  328885.0 ns ACT  : Bank = 0 Row =    0
test.sdram : at time  328925.0 ns WRITE: Bank = 0 Row =    0, Col =   2, Data = c1838e13
test.sdram : at time  329285.0 ns ACT  : Bank = 0 Row =    0
test.sdram : at time  329325.0 ns WRITE: Bank = 0 Row =    0, Col =   3, Data = 830e0e93
test.sdram : at time  329675.0 ns ACT  : Bank = 0 Row =    0
test.sdram : at time  329715.0 ns WRITE: Bank = 0 Row =    0, Col =   4, Data = 3e8e8f13
test.sdram : at time  330035.0 ns ACT  : Bank = 0 Row =    0
test.sdram : at time  330075.0 ns WRITE: Bank = 0 Row =    0, Col =   5, Data = 00000000
test.sdram : at time  330395.0 ns ACT  : Bank = 0 Row =    0
test.sdram : at time  330435.0 ns WRITE: Bank = 0 Row =    0, Col =   6, Data = 00000000
test.sdram : at time  330755.0 ns ACT  : Bank = 0 Row =    0
test.sdram : at time  330795.0 ns WRITE: Bank = 0 Row =    0, Col =   7, Data = 00000000
test.sdram : at time  331115.0 ns ACT  : Bank = 0 Row =    0
test.sdram : at time  331155.0 ns WRITE: Bank = 0 Row =    0, Col =   8, Data = 00000000
test.sdram : at time  331475.0 ns ACT  : Bank = 0 Row =    0
test.sdram : at time  331515.0 ns WRITE: Bank = 0 Row =    0, Col =   9, Data = 00000000
test.sdram : at time  331835.0 ns ACT  : Bank = 0 Row =    0
test.sdram : at time  331875.0 ns WRITE: Bank = 0 Row =    0, Col =  10, Data = 00000000
test.sdram : at time  332195.0 ns ACT  : Bank = 0 Row =    0
test.sdram : at time  332235.0 ns WRITE: Bank = 0 Row =    0, Col =  11, Data = 00000000
test.sdram : at time  332555.0 ns ACT  : Bank = 0 Row =    0
test.sdram : at time  332595.0 ns WRITE: Bank = 0 Row =    0, Col =  12, Data = 00000000
test.sdram : at time  332915.0 ns ACT  : Bank = 0 Row =    0
test.sdram : at time  332955.0 ns WRITE: Bank = 0 Row =    0, Col =  13, Data = 00000000
test.sdram : at time  333275.0 ns ACT  : Bank = 0 Row =    0
test.sdram : at time  333315.0 ns WRITE: Bank = 0 Row =    0, Col =  14, Data = 00000000
test.sdram : at time  333635.0 ns ACT  : Bank = 0 Row =    0
test.sdram : at time  333675.0 ns WRITE: Bank = 0 Row =    0, Col =  15, Data = 00000000
test.sdram : at time  333765.0 ns AREF : Auto Refresh
test.sdram : at time  333995.0 ns ACT  : Bank = 0 Row =    0
test.sdram : at time  334035.0 ns WRITE: Bank = 0 Row =    0, Col =  16, Data = 00000000
test.sdram : at time  334355.0 ns ACT  : Bank = 0 Row =    0
test.sdram : at time  334395.0 ns WRITE: Bank = 0 Row =    0, Col =  17, Data = 00000000
test.sdram : at time  334715.0 ns ACT  : Bank = 0 Row =    0
test.sdram : at time  334755.0 ns WRITE: Bank = 0 Row =    0, Col =  18, Data = 00000000
test.sdram : at time  335075.0 ns ACT  : Bank = 0 Row =    0
test.sdram : at time  335115.0 ns WRITE: Bank = 0 Row =    0, Col =  19, Data = 00000000
test.sdram : at time  335435.0 ns ACT  : Bank = 0 Row =    0
test.sdram : at time  335475.0 ns WRITE: Bank = 0 Row =    0, Col =  20, Data = 00000000
test.sdram : at time  335795.0 ns ACT  : Bank = 0 Row =    0
test.sdram : at time  335835.0 ns WRITE: Bank = 0 Row =    0, Col =  21, Data = 00000000
test.sdram : at time  336155.0 ns ACT  : Bank = 0 Row =    0
test.sdram : at time  336195.0 ns WRITE: Bank = 0 Row =    0, Col =  22, Data = 00000000
test.sdram : at time  336515.0 ns ACT  : Bank = 0 Row =    0
test.sdram : at time  336555.0 ns WRITE: Bank = 0 Row =    0, Col =  23, Data = 00000000
test.sdram : at time  336875.0 ns ACT  : Bank = 0 Row =    0
test.sdram : at time  336915.0 ns WRITE: Bank = 0 Row =    0, Col =  24, Data = 00000000
test.sdram : at time  337235.0 ns ACT  : Bank = 0 Row =    0
test.sdram : at time  337275.0 ns WRITE: Bank = 0 Row =    0, Col =  25, Data = 00000000
test.sdram : at time  337595.0 ns ACT  : Bank = 0 Row =    0
test.sdram : at time  337635.0 ns WRITE: Bank = 0 Row =    0, Col =  26, Data = 00000000
test.sdram : at time  337955.0 ns ACT  : Bank = 0 Row =    0
test.sdram : at time  337995.0 ns WRITE: Bank = 0 Row =    0, Col =  27, Data = 00000000
test.sdram : at time  338315.0 ns ACT  : Bank = 0 Row =    0
test.sdram : at time  338355.0 ns WRITE: Bank = 0 Row =    0, Col =  28, Data = 00000000
test.sdram : at time  338675.0 ns ACT  : Bank = 0 Row =    0
test.sdram : at time  338715.0 ns WRITE: Bank = 0 Row =    0, Col =  29, Data = 00000000
test.sdram : at time  339035.0 ns ACT  : Bank = 0 Row =    0
test.sdram : at time  339075.0 ns WRITE: Bank = 0 Row =    0, Col =  30, Data = 00000000
test.sdram : at time  339395.0 ns ACT  : Bank = 0 Row =    0
test.sdram : at time  339435.0 ns WRITE: Bank = 0 Row =    0, Col =  31, Data = 00000000
test.sdram : at time  339755.0 ns ACT  : Bank = 0 Row =    0
test.sdram : at time  339795.0 ns WRITE: Bank = 0 Row =    0, Col =  32, Data = 00000000
test.sdram : at time  339865.0 ns AREF : Auto Refresh
test.sdram : at time  340115.0 ns ACT  : Bank = 0 Row =    0
test.sdram : at time  340155.0 ns WRITE: Bank = 0 Row =    0, Col =  33, Data = 00000000
test.sdram : at time  340475.0 ns ACT  : Bank = 0 Row =    0
test.sdram : at time  340515.0 ns WRITE: Bank = 0 Row =    0, Col =  34, Data = 00000000
test.sdram : at time  340835.0 ns ACT  : Bank = 0 Row =    0
test.sdram : at time  340875.0 ns WRITE: Bank = 0 Row =    0, Col =  35, Data = 00000000
test.sdram : at time  341195.0 ns ACT  : Bank = 0 Row =    0
test.sdram : at time  341235.0 ns WRITE: Bank = 0 Row =    0, Col =  36, Data = 00000000
test.sdram : at time  341555.0 ns ACT  : Bank = 0 Row =    0
test.sdram : at time  341595.0 ns WRITE: Bank = 0 Row =    0, Col =  37, Data = 00000000
test.sdram : at time  341915.0 ns ACT  : Bank = 0 Row =    0
test.sdram : at time  341955.0 ns WRITE: Bank = 0 Row =    0, Col =  38, Data = 00000000
test.sdram : at time  342275.0 ns ACT  : Bank = 0 Row =    0
test.sdram : at time  342315.0 ns WRITE: Bank = 0 Row =    0, Col =  39, Data = 00000000
test.sdram : at time  342635.0 ns ACT  : Bank = 0 Row =    0
test.sdram : at time  342675.0 ns WRITE: Bank = 0 Row =    0, Col =  40, Data = 00000000
test.sdram : at time  342995.0 ns ACT  : Bank = 0 Row =    0
test.sdram : at time  343035.0 ns WRITE: Bank = 0 Row =    0, Col =  41, Data = 00000000
test.sdram : at time  343355.0 ns ACT  : Bank = 0 Row =    0
test.sdram : at time  343395.0 ns WRITE: Bank = 0 Row =    0, Col =  42, Data = 00000000
test.sdram : at time  343715.0 ns ACT  : Bank = 0 Row =    0
test.sdram : at time  343755.0 ns WRITE: Bank = 0 Row =    0, Col =  43, Data = 00000000
test.sdram : at time  344075.0 ns ACT  : Bank = 0 Row =    0
test.sdram : at time  344115.0 ns WRITE: Bank = 0 Row =    0, Col =  44, Data = 00000000
test.sdram : at time  344435.0 ns ACT  : Bank = 0 Row =    0
test.sdram : at time  344475.0 ns WRITE: Bank = 0 Row =    0, Col =  45, Data = 00000000
test.sdram : at time  344795.0 ns ACT  : Bank = 0 Row =    0
test.sdram : at time  344835.0 ns WRITE: Bank = 0 Row =    0, Col =  46, Data = 00000000
test.sdram : at time  345155.0 ns ACT  : Bank = 0 Row =    0
test.sdram : at time  345195.0 ns WRITE: Bank = 0 Row =    0, Col =  47, Data = 00000000
test.sdram : at time  345515.0 ns ACT  : Bank = 0 Row =    0
test.sdram : at time  345555.0 ns WRITE: Bank = 0 Row =    0, Col =  48, Data = 00000000
test.sdram : at time  345885.0 ns AREF : Auto Refresh
test.sdram : at time  345985.0 ns ACT  : Bank = 0 Row =    0
test.sdram : at time  346025.0 ns WRITE: Bank = 0 Row =    0, Col =  49, Data = 00000000
test.sdram : at time  346385.0 ns ACT  : Bank = 0 Row =    0
test.sdram : at time  346425.0 ns WRITE: Bank = 0 Row =    0, Col =  50, Data = 00000000
test.sdram : at time  346775.0 ns ACT  : Bank = 0 Row =    0
test.sdram : at time  346815.0 ns WRITE: Bank = 0 Row =    0, Col =  51, Data = 00000000
test.sdram : at time  347135.0 ns ACT  : Bank = 0 Row =    0
test.sdram : at time  347175.0 ns WRITE: Bank = 0 Row =    0, Col =  52, Data = 00000000
test.sdram : at time  347495.0 ns ACT  : Bank = 0 Row =    0
test.sdram : at time  347535.0 ns WRITE: Bank = 0 Row =    0, Col =  53, Data = 00000000
test.sdram : at time  347855.0 ns ACT  : Bank = 0 Row =    0
test.sdram : at time  347895.0 ns WRITE: Bank = 0 Row =    0, Col =  54, Data = 00000000
test.sdram : at time  348215.0 ns ACT  : Bank = 0 Row =    0
test.sdram : at time  348255.0 ns WRITE: Bank = 0 Row =    0, Col =  55, Data = 00000000
test.sdram : at time  348575.0 ns ACT  : Bank = 0 Row =    0
test.sdram : at time  348615.0 ns WRITE: Bank = 0 Row =    0, Col =  56, Data = 00000000
test.sdram : at time  348935.0 ns ACT  : Bank = 0 Row =    0
test.sdram : at time  348975.0 ns WRITE: Bank = 0 Row =    0, Col =  57, Data = 00000000
test.sdram : at time  349295.0 ns ACT  : Bank = 0 Row =    0
test.sdram : at time  349335.0 ns WRITE: Bank = 0 Row =    0, Col =  58, Data = 00000000
test.sdram : at time  349655.0 ns ACT  : Bank = 0 Row =    0
test.sdram : at time  349695.0 ns WRITE: Bank = 0 Row =    0, Col =  59, Data = 00000000
test.sdram : at time  350015.0 ns ACT  : Bank = 0 Row =    0
test.sdram : at time  350055.0 ns WRITE: Bank = 0 Row =    0, Col =  60, Data = 00000000
test.sdram : at time  350375.0 ns ACT  : Bank = 0 Row =    0
test.sdram : at time  350415.0 ns WRITE: Bank = 0 Row =    0, Col =  61, Data = 00000000
test.sdram : at time  350735.0 ns ACT  : Bank = 0 Row =    0
test.sdram : at time  350775.0 ns WRITE: Bank = 0 Row =    0, Col =  62, Data = 00000000
test.sdram : at time  351095.0 ns ACT  : Bank = 0 Row =    0
test.sdram : at time  351135.0 ns WRITE: Bank = 0 Row =    0, Col =  63, Data = 00000000
test.sdram : at time  351455.0 ns ACT  : Bank = 0 Row =    0
test.sdram : at time  351495.0 ns WRITE: Bank = 0 Row =    0, Col =  64, Data = 00000000
test.sdram : at time  351815.0 ns ACT  : Bank = 0 Row =    0
test.sdram : at time  351855.0 ns WRITE: Bank = 0 Row =    0, Col =  65, Data = 00000000
test.sdram : at time  351925.0 ns AREF : Auto Refresh
test.sdram : at time  352175.0 ns ACT  : Bank = 0 Row =    0
test.sdram : at time  352215.0 ns WRITE: Bank = 0 Row =    0, Col =  66, Data = 00000000
test.sdram : at time  352535.0 ns ACT  : Bank = 0 Row =    0
test.sdram : at time  352575.0 ns WRITE: Bank = 0 Row =    0, Col =  67, Data = 00000000
test.sdram : at time  352895.0 ns ACT  : Bank = 0 Row =    0
test.sdram : at time  352935.0 ns WRITE: Bank = 0 Row =    0, Col =  68, Data = 00000000
test.sdram : at time  353255.0 ns ACT  : Bank = 0 Row =    0
test.sdram : at time  353295.0 ns WRITE: Bank = 0 Row =    0, Col =  69, Data = 00000000
test.sdram : at time  353615.0 ns ACT  : Bank = 0 Row =    0
test.sdram : at time  353655.0 ns WRITE: Bank = 0 Row =    0, Col =  70, Data = 00000000
test.sdram : at time  353975.0 ns ACT  : Bank = 0 Row =    0
test.sdram : at time  354015.0 ns WRITE: Bank = 0 Row =    0, Col =  71, Data = 00000000
test.sdram : at time  354335.0 ns ACT  : Bank = 0 Row =    0
test.sdram : at time  354375.0 ns WRITE: Bank = 0 Row =    0, Col =  72, Data = 00000000
test.sdram : at time  354695.0 ns ACT  : Bank = 0 Row =    0
test.sdram : at time  354735.0 ns WRITE: Bank = 0 Row =    0, Col =  73, Data = 00000000
test.sdram : at time  355055.0 ns ACT  : Bank = 0 Row =    0
test.sdram : at time  355095.0 ns WRITE: Bank = 0 Row =    0, Col =  74, Data = 00000000
test.sdram : at time  355415.0 ns ACT  : Bank = 0 Row =    0
test.sdram : at time  355455.0 ns WRITE: Bank = 0 Row =    0, Col =  75, Data = 00000000
test.sdram : at time  355775.0 ns ACT  : Bank = 0 Row =    0
test.sdram : at time  355815.0 ns WRITE: Bank = 0 Row =    0, Col =  76, Data = 00000000
test.sdram : at time  356135.0 ns ACT  : Bank = 0 Row =    0
test.sdram : at time  356175.0 ns WRITE: Bank = 0 Row =    0, Col =  77, Data = 00000000
test.sdram : at time  356495.0 ns ACT  : Bank = 0 Row =    0
test.sdram : at time  356535.0 ns WRITE: Bank = 0 Row =    0, Col =  78, Data = 00000000
test.sdram : at time  356855.0 ns ACT  : Bank = 0 Row =    0
test.sdram : at time  356895.0 ns WRITE: Bank = 0 Row =    0, Col =  79, Data = 00000000
test.sdram : at time  357215.0 ns ACT  : Bank = 0 Row =    0
test.sdram : at time  357255.0 ns WRITE: Bank = 0 Row =    0, Col =  80, Data = 00000000
test.sdram : at time  357575.0 ns ACT  : Bank = 0 Row =    0
test.sdram : at time  357615.0 ns WRITE: Bank = 0 Row =    0, Col =  81, Data = 00000000
test.sdram : at time  357945.0 ns AREF : Auto Refresh
test.sdram : at time  358045.0 ns ACT  : Bank = 0 Row =    0
test.sdram : at time  358085.0 ns WRITE: Bank = 0 Row =    0, Col =  82, Data = 00000000
test.sdram : at time  358445.0 ns ACT  : Bank = 0 Row =    0
test.sdram : at time  358485.0 ns WRITE: Bank = 0 Row =    0, Col =  83, Data = 00000000
test.sdram : at time  358835.0 ns ACT  : Bank = 0 Row =    0
test.sdram : at time  358875.0 ns WRITE: Bank = 0 Row =    0, Col =  84, Data = 00000000
test.sdram : at time  359195.0 ns ACT  : Bank = 0 Row =    0
test.sdram : at time  359235.0 ns WRITE: Bank = 0 Row =    0, Col =  85, Data = 00000000
test.sdram : at time  359555.0 ns ACT  : Bank = 0 Row =    0
test.sdram : at time  359595.0 ns WRITE: Bank = 0 Row =    0, Col =  86, Data = 00000000
test.sdram : at time  359915.0 ns ACT  : Bank = 0 Row =    0
test.sdram : at time  359955.0 ns WRITE: Bank = 0 Row =    0, Col =  87, Data = 00000000
          0: x0   :          0 - 0x00000000
          1: ra   :         12 - 0x0000000c
          2: sp   :       4080 - 0x00000ff0
          3: gp   :          0 - 0x00000000
          4: tp   :          0 - 0x00000000
          5: t0   :          0 - 0x00000000
          6: t1   :          0 - 0x00000000
          7: t2   :          0 - 0x00000000
          8: s0/fp:          0 - 0x00000000
          9: s1   :          0 - 0x00000000
         10: a0   :          0 - 0x00000000
         11: a1   :  268435456 - 0x10000000
         12: a2   :          0 - 0x00000000
         13: a3   : 2147483996 - 0x8000015c
         14: a4   : 1879080960 - 0x70008000
         15: a5   : 1879048544 - 0x70000160
         16: a6   :          0 - 0x00000000
         17: a7   :          0 - 0x00000000
         18: s2   :          0 - 0x00000000
         19: s3   :          0 - 0x00000000
         20: s4   :          0 - 0x00000000
         21: s5   :          0 - 0x00000000
         22: s6   :          0 - 0x00000000
         23: s7   :          0 - 0x00000000
         24: s8   :          0 - 0x00000000
         25: s9   :          0 - 0x00000000
         26: s10  :          0 - 0x00000000
         27: s11  :          0 - 0x00000000
         28: t3   :          0 - 0x00000000
         29: t4   :          0 - 0x00000000
         30: t5   :          0 - 0x00000000
         31: t6   :          0 - 0x00000000
          0:                                                                 
          1:                                                                 
          2:                                                                 
          3:                                                                 
          4:                                                                 
          5:                                                                 
          6:                                                                 
          7:                                                                 
          8:                                                                 
          9:                                                                 
         10:                                                                 
         11:                                                                 
         12:                                                                 
         13:                                                                 
         14:                                                                 
         15:                                                                 
         16:                                                                 
         17:                                                                 
         18:                                                                 
Memory stuff        2840: 00000000
Memory stuff        2841: 00000000
Memory stuff        2842: 00000000
Memory stuff        2843: 00000000
Memory stuff        2844: 00000000
Memory stuff        2845: 00000000
Memory stuff        2846: 00000000
Memory stuff        2847: 00000000
Memory stuff        2848: 00000000
Memory stuff        2849: 00000000
Memory stuff        2850: 00000000
Memory stuff        2851: 00000000
Memory stuff        2852: 00000000
Memory stuff        2853: 00000000
Memory stuff        2854: 00000000
Memory stuff        2855: 00000000
Memory stuff        2856: 00000000
Memory stuff        2857: 00000000
Memory stuff        2858: 00000000
Memory stuff        2859: 00000000
Memory stuff        2860: 00000000
Memory stuff        2861: 00000000
Memory stuff        2862: 00000000
Memory stuff        2863: 00000000
Memory stuff        2864: 00000000
Memory stuff        2865: 00000000
Memory stuff        2866: 00000000
Memory stuff        2867: 00000000
Memory stuff        2868: 00000000
Memory stuff        2869: 00000000
Memory stuff        2870: 00000000
Memory stuff        2871: 00000000
Memory stuff        2872: 00000000
Memory stuff        2873: 00000000
Memory stuff        2874: 00000000
Memory stuff        2875: 00000000
Memory stuff        2876: 00000000
Memory stuff        2877: 00000000
Memory stuff        2878: 00000000
Memory stuff        2879: 00000000
Memory stuff        2880: 00000000
Memory stuff        2881: 00000000
Memory stuff        2882: 00000000
Memory stuff        2883: 00000000
Memory stuff        2884: 00000000
Memory stuff        2885: 00000000
Memory stuff        2886: 00000000
Memory stuff        2887: 00000000
Memory stuff        2888: 00000000
Memory stuff        2889: 00000000
Memory stuff        2890: 00000000
Memory stuff        2891: 00000000
Memory stuff        2892: 00000000
Memory stuff        2893: 00000000
Memory stuff        2894: 00000000
Memory stuff        2895: 00000000
Memory stuff        2896: 00000000
Memory stuff        2897: 00000000
Memory stuff        2898: 00000000
Memory stuff        2899: 00000000
Memory stuff        2900: 00000000
Memory stuff        2901: 00000000
Memory stuff        2902: 00000000
Memory stuff        2903: 00000000
Memory stuff        2904: 00000000
Memory stuff        2905: 00000000
Memory stuff        2906: 00000000
Memory stuff        2907: 00000000
Memory stuff        2908: 00000000
Memory stuff        2909: 00000000
Memory stuff        2910: 00000000
Memory stuff        2911: 00000000
Memory stuff        2912: 00000000
Memory stuff        2913: 00000000
Memory stuff        2914: 00000000
Memory stuff        2915: 00000000
Memory stuff        2916: 00000000
Memory stuff        2917: 00000000
Memory stuff        2918: 00000000
Memory stuff        2919: 00000000
Memory stuff        2920: 00000000
Memory stuff        2921: 00000000
Memory stuff        2922: 00000000
Memory stuff        2923: 00000000
Memory stuff        2924: 00000000
Memory stuff        2925: 00000000
Memory stuff        2926: 00000000
Memory stuff        2927: 00000000
Memory stuff        2928: 00000000
Memory stuff        2929: 00000000
Memory stuff        2930: 00000000
Memory stuff        2931: 00000000
Memory stuff        2932: 00000000
Memory stuff        2933: 00000000
Memory stuff        2934: 00000000
Memory stuff        2935: 00000000
Memory stuff        2936: 00000000
Memory stuff        2937: 00000000
Memory stuff        2938: 00000000
Memory stuff        2939: 00000000
